User-friendly access to the GitHub API for R, consistent with the tidyverse • githapi
…
Similarly, to get the history of commits for a particular branch use view_commits():

view_commits("master", "ChadGoymer/githapi")

#> # GET https://api.github.com/repos/ChadGoymer/githapi/commits?sha=master&per_page=100
#> # GET https://api.github.com/repositories/93376315/commits?sha=master&per_page=100&page=2
#> # GET ...
#> # A tibble: 749 x 13
#>    sha   message author_login author_name author_email author_date         committer_login
#>    <chr> <chr>   <chr>        <chr>       <chr>        <dttm>              <chr>          
#>  1 c5a5~ "Merge~ ChadGoymer   Chad Goymer chad.goymer~ 2020-05-07 16:06:58 web-flow       
#>  2 f875~ "Regen~ ChadGoymer   Chad Goymer chad.goymer~ 2020-05-07 15:30:18 ChadGoymer     
#>  3 3df7~ "Updat~ ChadGoymer   Chad Goymer chad.goymer~ 2020-05-07 15:27:41 ChadGoymer     
#>  4 ab29~ "Corre~ ChadGoymer   Chad Goymer chad.goymer~ 2020-05-07 15:22:20 ChadGoymer     
#>  5 f973~ "Updat~ ChadGoymer   Chad Goymer chad.goymer~ 2020-05-07 15:12:08 ChadGoymer     
#>  6 c6f0~ "Repla~ ChadGoymer   Chad Goymer chad.goymer~ 2020-05-07 15:00:09 ChadGoymer     
#>  7 c008~ "Added~ ChadGoymer   Chad Goymer chad.goymer~ 2020-05-07 14:51:34 ChadGoymer     
#>  8 7fc1~ "Allow~ ChadGoymer   Chad Goymer chad.goymer~ 2020-05-06 18:11:37 ChadGoymer     
#>  9 eb93~ "Ensur~ ChadGoymer   Chad Goymer chad.goymer~ 2020-05-05 19:14:47 ChadGoymer     
#> 10 560b~ "Ensur~ ChadGoymer   Chad Goymer chad.goymer~ 2020-05-05 14:02:19 ChadGoymer     
#> # ... with 739 more rows, and 6 more variables: committer_name <chr>, committer_email <chr>,
#> #   committer_date <dttm>, tree_sha <chr>, parents <list>, html_url <chr>

Note that, by default, when viewing many items, only the last 1000 are returned. If you wish to view more you can set the n_max parameter. To get information about the files in a particular commit use view_files():

view_files(ref = "master", repo = "ChadGoymer/githapi")

#> # GET https://api.github.com/repos/ChadGoymer/githapi/git/trees/16a48fab8de89c6483b21430a48fecf9cd364d43?recursive=TRUE
#> # A tibble: 583 x 4
#>    path                  sha                    size html_url                                       
#>  * <chr>                 <chr>                 <dbl> <chr>                                          
#>  1 .Rbuildignore         9a84e8afdeb40bb57685~   253 https://github.com/ChadGoymer/githapi/blob/c5a~
#>  2 .covrignore           ec05f6ab9650fb158824~    12 https://github.com/ChadGoymer/githapi/blob/c5a~
#>  3 .github/ISSUE_TEMPLA~ f5c658bb37d5dbbc045b~   451 https://github.com/ChadGoymer/githapi/blob/c5a~
#>  4 .github/ISSUE_TEMPLA~ ec1f4be1460643e6b548~   479 https://github.com/ChadGoymer/githapi/blob/c5a~
#>  5 .github/pull_request~ 7f6c4324235f6d424d10~   140 https://github.com/ChadGoymer/githapi/blob/c5a~
#>  6 .gitignore            74b7fa994fa52cf7ecb5~   118 https://github.com/ChadGoymer/githapi/blob/c5a~
#>  7 .travis.yml           d7548ded184873394110~   273 https://github.com/ChadGoymer/githapi/blob/c5a~
#>  8 DESCRIPTION           9c2d45083c95864d3d6f~   726 https://github.com/ChadGoymer/githapi/blob/c5a~
#>  9 LICENSE               070a2ae0e71d920f58bd~    41 https://github.com/ChadGoymer/githapi/blob/c5a~
#> 10 LICENSE.md            6c2be93c834c1b8585c4~  1070 https://github.com/ChadGoymer/githapi/blob/c5a~
#> # ... with 573 more rows

Note that we have used a branch name here rather than a commit. That is because most functions in githapi allow git references to identify commits. A git reference is either a branch, in which case the head commit on the branch is used, a tag or the SHA-1 of the commit.

Information about tags and releases can also be viewed by using view_tags() and view_releases().

view_tags("ChadGoymer/githapi")

#> # A tibble: 21 x 3
#>    name     ref                sha                                     
#>    <chr>    <chr>              <chr>                                   
#>  1 test-tag refs/tags/test-tag 30426b4f967d8c253b1bb5a67c5838dc306aab50
#>  2 v0.0.0   refs/tags/v0.0.0   ad7e70df7c81ab7c0edbb26725ae7cf4b2ce8964
#>  3 v0.1.0   refs/tags/v0.1.0   7ca61bb71f877f462c0b6132759d7c5e507c921f
#>  4 v0.2.0   refs/tags/v0.2.0   7ee36b18186f0c09389af0eb0e4a6843c2ac853c
#>  5 v0.3.0   refs/tags/v0.3.0   d378328243626794ca725946c4e0662622aeb933
#>  6 v0.4.0   refs/tags/v0.4.0   7a22d6dd5520f5238677483689b5f255944b6764
#>  7 v0.5.0   refs/tags/v0.5.0   dcf71d189010f4ad7ef9630200cf432c61ffa04b
#>  8 v0.5.1   refs/tags/v0.5.1   e45eb21203e2f77da8d8b81df2a1b109fae01159
#>  9 v0.5.2   refs/tags/v0.5.2   099944f501b2c2fba940f807b1028dbc5349f29c
#> 10 v0.6.0   refs/tags/v0.6.0   702c033f59081cd12b364d64763d22e12701c62f
#> # ... with 11 more rows
…
