User-friendly access to the GitHub API for R, consistent with the tidyverse. — githapi • githapi
…
view_branches("ChadGoymer/test-githapi")

#> # A tibble: 4 x 6
#>   name     ref        url                 object_sha      object_type object_url
#>   <chr>    <chr>      <chr>               <chr>           <chr>       <chr>
#> 1 master   refs/head~ https://api.github~ bd1be3ea52d69d~ commit      https://api.github.com/r~
#> 2 test-br~ refs/head~ https://api.github~ 244116707ad9e2~ commit      https://api.github.com/r~
#> 3 test-up~ refs/head~ https://api.github~ 61c19d6edb1b9e~ commit      https://api.github.com/r~
#> 4 unedite~ refs/head~ https://api.github~ 37d97bf9e93418~ commit      https://api.github.com/r~

    Similarly, to get the history of commits for a particular branch use view_history():

view_history("master", "ChadGoymer/test-githapi")

#> # A tibble: 1,000 x 12
#>    sha   message author_name author_email committer_name committer_email date
#>    <chr> <chr>   <chr>       <chr>        <chr>          <chr>           <dttm>
#>  1 bd1b~ Testin~ Jane Jones  jane.jones@~ Bob Smith      bob.smith@acme~ 2019-02-18 07:46:08
#>  2 d12b~ Testin~ Jane Jones  jane.jones@~ Bob Smith      bob.smith@acme~ 2019-02-18 07:46:07
#>  3 9d4c~ Testin~ Bob Smith   bob.smith@a~ Jane Jones     jane.jones@acm~ 2019-02-18 07:46:06
#>  4 3cb8~ Testin~ Chad Goymer chad.goymer~ Chad Goymer    chad.goymer@gm~ 2019-02-18 07:45:59
#>  5 06f3~ Testin~ Chad Goymer chad.goymer~ Chad Goymer    chad.goymer@gm~ 2019-02-18 07:45:58
#>  6 aaec~ Testin~ Chad Goymer chad.goymer~ Chad Goymer    chad.goymer@gm~ 2019-02-18 07:45:58
#>  7 523c~ Testin~ Chad Goymer chad.goymer~ Chad Goymer    chad.goymer@gm~ 2019-02-18 07:45:57
#>  8 3a95~ Testin~ Chad Goymer chad.goymer~ Chad Goymer    chad.goymer@gm~ 2019-02-18 07:45:56
#>  9 a032~ Testin~ Chad Goymer chad.goymer~ Chad Goymer    chad.goymer@gm~ 2019-02-18 07:45:53
#> 10 9b77~ Testin~ Chad Goymer chad.goymer~ Chad Goymer    chad.goymer@gm~ 2019-02-18 07:45:52
#> # ... with 990 more rows, and 5 more variables: url <chr>, tree_sha <chr>, tree_url <chr>,
#> #   parent_sha <list>, parent_url <list>
…
